Animal Shelter Data • animalshelter
…
library(tidyverse)
#> ── Attaching core tidyverse packages ──────────────────────── tidyverse 2.0.0 ──
#> ✔ dplyr     1.1.4     ✔ readr     2.1.5
#> ✔ forcats   1.0.0     ✔ stringr   1.5.1
#> ✔ ggplot2   3.5.1     ✔ tibble    3.2.1
#> ✔ lubridate 1.9.4     ✔ tidyr     1.3.1
#> ✔ purrr     1.0.2     
#> ── Conflicts ────────────────────────────────────────── tidyverse_conflicts() ──
#> ✖ dplyr::filter() masks stats::filter()
#> ✖ dplyr::lag()    masks stats::lag()
#> ℹ Use the conflicted package (<http://conflicted.r-lib.org/>) to force all conflicts to become errors
library(animalshelter)

longbeach
#> # A tibble: 29,787 × 23
#>    animal_id animal_name animal_type primary_color secondary_color sex     
#>    <chr>     <chr>       <chr>       <chr>         <chr>           <chr>   
#>  1 A693708   *charlien   dog         white         <NA>            Female  
#>  2 A708149   <NA>        reptile     brown         green           Unknown 
#>  3 A638068   <NA>        bird        green         red             Unknown 
#>  4 A639310   <NA>        bird        white         gray            Unknown 
#>  5 A618968   *morgan     cat         black         white           Female  
#>  6 A730385   *brandon    rabbit      black         white           Neutered
#>  7 A646202   <NA>        bird        black         <NA>            Unknown 
#>  8 A628138   <NA>        other       gray          black           Unknown 
#>  9 A597464   <NA>        cat         black         <NA>            Unknown 
#> 10 A734321   sophie      dog         cream         <NA>            Spayed  
#> # ℹ 29,777 more rows
#> # ℹ 17 more variables: dob <date>, intake_date <date>, intake_condition <chr>,
#> #   intake_type <chr>, intake_subtype <chr>, reason_for_intake <chr>,
#> #   outcome_date <date>, crossing <chr>, jurisdiction <chr>,
#> #   outcome_type <chr>, outcome_subtype <chr>, latitude <dbl>, longitude <dbl>,
#> #   intake_is_dead <chr>, outcome_is_dead <lgl>, was_outcome_alive <dbl>,
#> #   geopoint <chr>
…
longbeach |>
  count(primary_color, sort = TRUE)
#> # A tibble: 76 × 2
#>    primary_color     n
#>    <chr>         <int>
#>  1 black          7540
#>  2 gray           3916
#>  3 white          3651
#>  4 brown          3531
#>  5 brown  tabby   2242
#>  6 tan            1393
#>  7 gray tabby     1189
#>  8 orange tabby    904
#>  9 calico          520
#> 10 orange          515
#> # ℹ 66 more rows
…
